…
------------------------------------------------------------------------

## Full Results Table

``` r
results %>%
  arrange(p_rewire, T, responsiveness) %>%
  mutate(across(where(is.numeric), ~ round(.x, 4)))
```

    ## # A tibble: 140 × 18
    ##    responsiveness p_rewire     T avg_ideological_drift med_ideological_drift
    ##             <dbl>    <dbl> <dbl>                 <dbl>                 <dbl>
    ##  1            0.1        0    50                 0.232                0.144 
    ##  2            0.5        0    50                 0.190                0.0774
    ##  3            1          0    50                 0.203                0.113 
    ##  4            2          0    50                 0.172                0.0855
    ##  5            5          0    50                 0.167                0.0657
    ##  6           10          0    50                 0.149                0.0378
    ##  7           25          0    50                 0.149                0.0378
    ##  8            0.1        0   100                 0.202                0.115 
    ##  9            0.5        0   100                 0.175                0.092 
    ## 10            1          0   100                 0.175                0.0765
    ## # ℹ 130 more rows
    ## # ℹ 13 more variables: max_ideological_drift <dbl>, pct_high_drift <dbl>,
    ## #   lost_vote_rate <dbl>, delegation_rate <dbl>, gini_power <dbl>,
    ## #   top5_power_share <dbl>, avg_chain_length_all <dbl>,
    ## #   avg_chain_length_delegators <dbl>, largest_voting_bloc_share <dbl>,
    ## #   liquid_margin <dbl>, direct_margin <dbl>, convergence_sd <dbl>,
    ## #   delegation_stability <dbl>
