…
------------------------------------------------------------------------

## Full Results Table

``` r
results %>%
  arrange(p_rewire, T, responsiveness) %>%
  mutate(across(where(is.numeric), ~ round(.x, 4)))
```

    ## # A tibble: 108 × 6
    ##    responsiveness p_rewire     T avg_ideological_drift lost_vote_rate gini_power
    ##             <dbl>    <dbl> <dbl>                 <dbl>          <dbl>      <dbl>
    ##  1            0.1        0    50                 0.232          0.42       0.252
    ##  2            0.5        0    50                 0.190          0.348      0.255
    ##  3            1          0    50                 0.203          0.184      0.304
    ##  4            2          0    50                 0.172          0.128      0.297
    ##  5            5          0    50                 0.167          0.124      0.292
    ##  6           10          0    50                 0.149          0.128      0.277
    ##  7           25          0    50                 0.149          0.128      0.277
    ##  8           50          0    50                 0.149          0.128      0.277
    ##  9          100          0    50                 0.149          0.128      0.277
    ## 10            0.1        0   100                 0.202          0.236      0.312
    ## # ℹ 98 more rows
